{
  "tests": [
    {
      "name": "Task 1",
      "setup": "",
      "run": "./gradlew task1:test",
      "input": "",
      "output": "",
      "comparison": "included",
      "timeout": 10,
      "points": 1
    },
    {
      "name": "Task 2",
      "setup": "",
      "run": "./gradlew task2:test",
      "input": "",
      "output": "",
      "comparison": "included",
      "timeout": 10,
      "points": 1
    },
    {
      "name": "Task 3",
      "setup": "",
      "run": "./gradlew task3:test",
      "input": "",
      "output": "",
      "comparison": "included",
      "timeout": 10,
      "points": 1
    },
    {
      "name": "Task 4",
      "setup": "",
      "run": "./gradlew task4:test",
      "input": "",
      "output": "",
      "comparison": "included",
      "timeout": 10,
      "points": 1
    }
  ]
}